\relax 
\@writefile{toc}{\contentsline {section}{\numberline {1}DEL 3 agents}{1}}
\@writefile{toc}{\contentsline {section}{\numberline {2}Combinatorics 3 agents}{2}}
\@writefile{toc}{\contentsline {section}{\numberline {3}Reference}{3}}
